{
	"name" : "game",
	"version" : "1.0.0",
	"description" : "These are the game settings. Here are defined different properties about your application that are used by other applications.",
	"author" : {
		"name" 	: "Jonathan Hattab",
		"email" : "jonathanhattab@madjoh.com"
	},
	"dependencies" : {},
	"devDependencies" : {}
}